%YAML 1.1
%TAG !u! tag:unity3d.com,2011:
--- !u!114 &11400000
MonoBehaviour:
  m_ObjectHideFlags: 0
  m_CorrespondingSourceObject: {fileID: 0}
  m_PrefabInstance: {fileID: 0}
  m_PrefabAsset: {fileID: 0}
  m_GameObject: {fileID: 0}
  m_Enabled: 1
  m_EditorHideFlags: 0
  m_Script: {fileID: 11500000, guid: eca707489d83c344f8781bbe046cb69b, type: 3}
  m_Name: Scene Merge
  m_EditorClassIdentifier: 
  serializationData:
    SerializedFormat: 1
    SerializedBytes: 
    ReferencedUnityObjects: []
    SerializedBytesString: 
    Prefab: {fileID: 0}
    PrefabModificationsReferencedUnityObjects: []
    PrefabModifications: []
    SerializationNodes: []
  m_GameScenes:
  - {fileID: 102900000, guid: 43dc52d09f7802e449b255523cf6058a, type: 3}
  - {fileID: 102900000, guid: d1c3109bdb54ad54c8a2b2838528e640, type: 3}
  m_DefaultSceneName: merged_scene
