%YAML 1.1
%TAG !u! tag:unity3d.com,2011:
--- !u!114 &11400000
MonoBehaviour:
  m_ObjectHideFlags: 0
  m_CorrespondingSourceObject: {fileID: 0}
  m_PrefabInstance: {fileID: 0}
  m_PrefabAsset: {fileID: 0}
  m_GameObject: {fileID: 0}
  m_Enabled: 1
  m_EditorHideFlags: 0
  m_Script: {fileID: 11500000, guid: bbfd9c804538296478b9157be825275c, type: 3}
  m_Name: Score System Configuration
  m_EditorClassIdentifier: 
  serializationData:
    SerializedFormat: 1
    SerializedBytes: 
    ReferencedUnityObjects: []
    SerializedBytesString: 
    Prefab: {fileID: 0}
    PrefabModificationsReferencedUnityObjects: []
    PrefabModifications: []
    SerializationNodes: []
  testOnScoreChanged: {fileID: 11400000, guid: dd1007e6a43e978489a4a6020306257a, type: 2}
  scorePerSecond: 1
  bonusPoints: 50
  pointsPerRedSoldier: 1
  pointsPerYellowSoldier: 3
  pointsPerBlueSoldier: 5
