%YAML 1.1
%TAG !u! tag:unity3d.com,2011:
--- !u!114 &11400000
MonoBehaviour:
  m_ObjectHideFlags: 0
  m_CorrespondingSourceObject: {fileID: 0}
  m_PrefabInstance: {fileID: 0}
  m_PrefabAsset: {fileID: 0}
  m_GameObject: {fileID: 0}
  m_Enabled: 1
  m_EditorHideFlags: 0
  m_Script: {fileID: 11500000, guid: bc2fe778a26ff0a44ae0b0c4431b2b11, type: 3}
  m_Name: m9 weapon stats
  m_EditorClassIdentifier: 
  Icon: {fileID: 2800000, guid: fe3247c059be310448efa711557c348f, type: 3}
  Name: M9
  Description: Long Arm of the Law
  Notes: 
  Type: 2
  Requirements:
    stats: []
  Bullet: {fileID: 11488256, guid: 8567a1cf1f7f3594f8bff8814a4488c5, type: 3}
  MuzzleFlashVFX: {fileID: 164298, guid: 8dcda7e934503a64d8ec07cc28c53af7, type: 3}
  ImpactVisualEffect: {fileID: 1428566182971981433, guid: bc39059ed30cc69469a6d96a48045265, type: 3}
  Prefab: {fileID: 3078330040281624330, guid: f5d090530499a504d8cd022530455107, type: 3}
  MaxRoundPerClip: 6
  MaxRoundsTotal: 42
  durability: 0
  modifiers:
    stats:
    - Type: 1
      Value: 1.5
  BaseWeaponDamage: 10
  BaseFireRate: 0.5
  BaseReloadSpeed: 0.9
  BaseAccuracy: 0.35
  BaseBulletSpeed: 50
  BaseLifetime: 10
  BaseBulletForce: 20
  RaycastSensorUpdateMode: 1
  WeaponFireClip: {fileID: 11400000, guid: a701c323f7e01a14a91e4ee81c2db991, type: 2}
