%YAML 1.1
%TAG !u! tag:unity3d.com,2011:
--- !u!114 &11400000
MonoBehaviour:
  m_ObjectHideFlags: 0
  m_CorrespondingSourceObject: {fileID: 0}
  m_PrefabInstance: {fileID: 0}
  m_PrefabAsset: {fileID: 0}
  m_GameObject: {fileID: 0}
  m_Enabled: 1
  m_EditorHideFlags: 0
  m_Script: {fileID: 11500000, guid: 1801d91b227c6ec4b800094b0774daa8, type: 3}
  m_Name: Main Menu Background Track
  m_EditorClassIdentifier: 
  serializationData:
    SerializedFormat: 1
    SerializedBytes: 
    ReferencedUnityObjects: []
    SerializedBytesString: 
    Prefab: {fileID: 0}
    PrefabModificationsReferencedUnityObjects: []
    PrefabModifications: []
    SerializationNodes: []
  sound: {fileID: 8300000, guid: bdaa0e32ca7be77429842407dc72aefa, type: 3}
  volume: 0.25
  volumeVariation: 0.1
  pitch: 1
  pitchVariation: 0
